proj.utf8
…
ncol(AggregateByState)

## [1] 131

AggregateByState %>% drop_na()

## # A tibble: 521 x 131
##    STATE Pop_Density `4_22_Confirmed` `4_22_Deaths` `4_16_Confirmed`
##    <fct>       <dbl>            <dbl>         <dbl>            <dbl>
##  1 ALAB~       131.               132             3              101
##  2 ALAB~       112.                44             0               40
##  3 ALAB~        91.6               58             2               32
##  4 ALAB~        49.8               22             0               17
##  5 ALAB~       180.                75             3               57
##  6 ALAB~       594.               726            31              634
##  7 ALAB~       139.                25             3               22
##  8 ALAB~       166.                39             0               38
##  9 ALAB~       168.               241             4              114
## 10 ALAB~       337.               756            39              577
## # ... with 511 more rows, and 126 more variables: `4_16_Deaths` <dbl>,
## #   ET_Total_Population <dbl>, EM_Total_Pop_Median_Age <dbl>,
## #   E_Total_Pop_SEX_Male <dbl>, E_Total_Pop_SEX_Female <dbl>,
## #   E_Total_Pop_RACE_One_Race <dbl>, E_Total_Pop_RACE_White <dbl>,
## #   E_Total_Pop_RACE_Black <dbl>, E_Total_Pop_RACE_Native_Pop <dbl>,
## #   E_Total_Pop_RACE_Asian <dbl>, E_Total_Pop_RACE_Pacific_Islander <dbl>,
## #   E_Total_Pop_RACE_Other_Race <dbl>,
## #   E_Total_Pop_RACE_Two_or_More_Races <dbl>, E_Total_Pop_RACE_Hispanic <dbl>,
## #   E_Total_Pop_RACE_White_Alone <dbl>,
…
```r
AggregateByState = ACSData[,2:133]
AggregateByState = AggregateByState[,-2]
AggregateByState %>% drop_na()

## # A tibble: 521 x 131
##    STATE Pop_Density `4_22_Confirmed` `4_22_Deaths` `4_16_Confirmed`
##    <fct>       <dbl>            <dbl>         <dbl>            <dbl>
##  1 ALAB~       131.               132             3              101
##  2 ALAB~       112.                44             0               40
##  3 ALAB~        91.6               58             2               32
##  4 ALAB~        49.8               22             0               17
##  5 ALAB~       180.                75             3               57
##  6 ALAB~       594.               726            31              634
##  7 ALAB~       139.                25             3               22
##  8 ALAB~       166.                39             0               38
##  9 ALAB~       168.               241             4              114
## 10 ALAB~       337.               756            39              577
## # ... with 511 more rows, and 126 more variables: `4_16_Deaths` <dbl>,
## #   ET_Total_Population <dbl>, EM_Total_Pop_Median_Age <dbl>,
## #   E_Total_Pop_SEX_Male <dbl>, E_Total_Pop_SEX_Female <dbl>,
## #   E_Total_Pop_RACE_One_Race <dbl>, E_Total_Pop_RACE_White <dbl>,
## #   E_Total_Pop_RACE_Black <dbl>, E_Total_Pop_RACE_Native_Pop <dbl>,
## #   E_Total_Pop_RACE_Asian <dbl>, E_Total_Pop_RACE_Pacific_Islander <dbl>,
## #   E_Total_Pop_RACE_Other_Race <dbl>,
## #   E_Total_Pop_RACE_Two_or_More_Races <dbl>, E_Total_Pop_RACE_Hispanic <dbl>,
## #   E_Total_Pop_RACE_White_Alone <dbl>,
…
